%YAML 1.1
%TAG !u! tag:unity3d.com,2011:
--- !u!1045 &1
EditorBuildSettings:
  m_ObjectHideFlags: 0
  serializedVersion: 2
  m_Scenes:
  - enabled: 1
    path: Assets/DemoScene.unity
    guid: 319dafa5c80f29f428dc1e0d03f04177
  m_configObjects:
    Unity.XR.Oculus.Settings: {fileID: 11400000, guid: cfd422fac6e29c746981f2febebc675b,
      type: 2}
    com.unity.xr.management.loader_settings: {fileID: 11400000, guid: 0f1bf92a67818ba42968e5840a94f45c,
      type: 2}
    com.unity.xr.openxr.settings4: {fileID: 11400000, guid: 7d847b975f96a114cbdbb10e929b1398,
      type: 2}
    xr.sdk.mock-hmd.settings: {fileID: 11400000, guid: 35d9e7d93c4b5d24ab5c86df3d2ba94e,
      type: 2}
