%YAML 1.1
%TAG !u! tag:unity3d.com,2011:
--- !u!1 &1060243933316379515
GameObject:
  m_ObjectHideFlags: 0
  m_CorrespondingSourceObject: {fileID: 0}
  m_PrefabInstance: {fileID: 0}
  m_PrefabAsset: {fileID: 0}
  serializedVersion: 6
  m_Component:
  - component: {fileID: 2991896912978869755}
  m_Layer: 0
  m_Name: Interactables Sample
  m_TagString: Untagged
  m_Icon: {fileID: 0}
  m_NavMeshLayer: 0
  m_StaticEditorFlags: 0
  m_IsActive: 1
--- !u!4 &2991896912978869755
Transform:
  m_ObjectHideFlags: 0
  m_CorrespondingSourceObject: {fileID: 0}
  m_PrefabInstance: {fileID: 0}
  m_PrefabAsset: {fileID: 0}
  m_GameObject: {fileID: 1060243933316379515}
  serializedVersion: 2
  m_LocalRotation: {x: 0, y: 0, z: 0, w: 1}
  m_LocalPosition: {x: 0, y: 0, z: 1.5}
  m_LocalScale: {x: 1, y: 1, z: 1}
  m_ConstrainProportionsScale: 0
  m_Children:
  - {fileID: 6559198441471240595}
  - {fileID: 5178052650083227069}
  - {fileID: 1084091470699946729}
  m_Father: {fileID: 0}
  m_LocalEulerAnglesHint: {x: 0, y: 0, z: 0}
--- !u!1001 &449834588460375933
PrefabInstance:
  m_ObjectHideFlags: 0
  serializedVersion: 2
  m_Modification:
    serializedVersion: 3
    m_TransformParent: {fileID: 2991896912978869755}
    m_Modifications:
    - target: {fileID: 6717354235273230061, guid: d4af6d98a242c854cb4d5ce3d77e46b5,
        type: 3}
      propertyPath: m_Name
      value: Interactable Kinematic Torus
      objectReference: {fileID: 0}
    - target: {fileID: 6717354235273230062, guid: d4af6d98a242c854cb4d5ce3d77e46b5,
        type: 3}
      propertyPath: m_LocalPosition.x
      value: 0.5
      objectReference: {fileID: 0}
    - target: {fileID: 6717354235273230062, guid: d4af6d98a242c854cb4d5ce3d77e46b5,
        type: 3}
      propertyPath: m_LocalPosition.y
      value: 0.5
      objectReference: {fileID: 0}
    - target: {fileID: 6717354235273230062, guid: d4af6d98a242c854cb4d5ce3d77e46b5,
        type: 3}
      propertyPath: m_LocalPosition.z
      value: 0
      objectReference: {fileID: 0}
    - target: {fileID: 6717354235273230062, guid: d4af6d98a242c854cb4d5ce3d77e46b5,
        type: 3}
      propertyPath: m_LocalRotation.w
      value: 0.7071068
      objectReference: {fileID: 0}
    - target: {fileID: 6717354235273230062, guid: d4af6d98a242c854cb4d5ce3d77e46b5,
        type: 3}
      propertyPath: m_LocalRotation.x
      value: 0.7071068
      objectReference: {fileID: 0}
    - target: {fileID: 6717354235273230062, guid: d4af6d98a242c854cb4d5ce3d77e46b5,
        type: 3}
      propertyPath: m_LocalRotation.y
      value: 0
      objectReference: {fileID: 0}
    - target: {fileID: 6717354235273230062, guid: d4af6d98a242c854cb4d5ce3d77e46b5,
        type: 3}
      propertyPath: m_LocalRotation.z
      value: 0
      objectReference: {fileID: 0}
    - target: {fileID: 6717354235273230062, guid: d4af6d98a242c854cb4d5ce3d77e46b5,
        type: 3}
      propertyPath: m_LocalEulerAnglesHint.x
      value: 90
      objectReference: {fileID: 0}
    - target: {fileID: 6717354235273230062, guid: d4af6d98a242c854cb4d5ce3d77e46b5,
        type: 3}
      propertyPath: m_LocalEulerAnglesHint.y
      value: 0
      objectReference: {fileID: 0}
    - target: {fileID: 6717354235273230062, guid: d4af6d98a242c854cb4d5ce3d77e46b5,
        type: 3}
      propertyPath: m_LocalEulerAnglesHint.z
      value: 0
      objectReference: {fileID: 0}
    m_RemovedComponents: []
    m_RemovedGameObjects: []
    m_AddedGameObjects: []
    m_AddedComponents: []
  m_SourcePrefab: {fileID: 100100000, guid: d4af6d98a242c854cb4d5ce3d77e46b5, type: 3}
--- !u!4 &6559198441471240595 stripped
Transform:
  m_CorrespondingSourceObject: {fileID: 6717354235273230062, guid: d4af6d98a242c854cb4d5ce3d77e46b5,
    type: 3}
  m_PrefabInstance: {fileID: 449834588460375933}
  m_PrefabAsset: {fileID: 0}
--- !u!1001 &3755484750008584553
PrefabInstance:
  m_ObjectHideFlags: 0
  serializedVersion: 2
  m_Modification:
    serializedVersion: 3
    m_TransformParent: {fileID: 2991896912978869755}
    m_Modifications:
    - target: {fileID: 4257412417454173056, guid: d5615d616019430d9c2e8727e71c97fb,
        type: 3}
      propertyPath: m_RootOrder
      value: 2
      objectReference: {fileID: 0}
    - target: {fileID: 4257412417454173056, guid: d5615d616019430d9c2e8727e71c97fb,
        type: 3}
      propertyPath: m_LocalPosition.x
      value: -0.425
      objectReference: {fileID: 0}
    - target: {fileID: 4257412417454173056, guid: d5615d616019430d9c2e8727e71c97fb,
        type: 3}
      propertyPath: m_LocalPosition.y
      value: 0.5
      objectReference: {fileID: 0}
    - target: {fileID: 4257412417454173056, guid: d5615d616019430d9c2e8727e71c97fb,
        type: 3}
      propertyPath: m_LocalPosition.z
      value: -0
      objectReference: {fileID: 0}
    - target: {fileID: 4257412417454173056, guid: d5615d616019430d9c2e8727e71c97fb,
        type: 3}
      propertyPath: m_LocalRotation.w
      value: 1
      objectReference: {fileID: 0}
    - target: {fileID: 4257412417454173056, guid: d5615d616019430d9c2e8727e71c97fb,
        type: 3}
      propertyPath: m_LocalRotation.x
      value: 0
      objectReference: {fileID: 0}
    - target: {fileID: 4257412417454173056, guid: d5615d616019430d9c2e8727e71c97fb,
        type: 3}
      propertyPath: m_LocalRotation.y
      value: 0
      objectReference: {fileID: 0}
    - target: {fileID: 4257412417454173056, guid: d5615d616019430d9c2e8727e71c97fb,
        type: 3}
      propertyPath: m_LocalRotation.z
      value: 0
      objectReference: {fileID: 0}
    - target: {fileID: 4257412417454173056, guid: d5615d616019430d9c2e8727e71c97fb,
        type: 3}
      propertyPath: m_LocalEulerAnglesHint.x
      value: 0
      objectReference: {fileID: 0}
    - target: {fileID: 4257412417454173056, guid: d5615d616019430d9c2e8727e71c97fb,
        type: 3}
      propertyPath: m_LocalEulerAnglesHint.y
      value: 0
      objectReference: {fileID: 0}
    - target: {fileID: 4257412417454173056, guid: d5615d616019430d9c2e8727e71c97fb,
        type: 3}
      propertyPath: m_LocalEulerAnglesHint.z
      value: 0
      objectReference: {fileID: 0}
    - target: {fileID: 4257412417454173071, guid: d5615d616019430d9c2e8727e71c97fb,
        type: 3}
      propertyPath: m_Name
      value: Interactable Velocity Tracked Wedge
      objectReference: {fileID: 0}
    m_RemovedComponents: []
    m_RemovedGameObjects: []
    m_AddedGameObjects: []
    m_AddedComponents: []
  m_SourcePrefab: {fileID: 100100000, guid: d5615d616019430d9c2e8727e71c97fb, type: 3}
--- !u!4 &1084091470699946729 stripped
Transform:
  m_CorrespondingSourceObject: {fileID: 4257412417454173056, guid: d5615d616019430d9c2e8727e71c97fb,
    type: 3}
  m_PrefabInstance: {fileID: 3755484750008584553}
  m_PrefabAsset: {fileID: 0}
--- !u!1001 &8960525556010302698
PrefabInstance:
  m_ObjectHideFlags: 0
  serializedVersion: 2
  m_Modification:
    serializedVersion: 3
    m_TransformParent: {fileID: 2991896912978869755}
    m_Modifications:
    - target: {fileID: 4289131053026027860, guid: f8ff17094e67ae343ad3e1747a7b78a2,
        type: 3}
      propertyPath: m_Name
      value: Interactable Instant Pyramid
      objectReference: {fileID: 0}
    - target: {fileID: 4289131053026027863, guid: f8ff17094e67ae343ad3e1747a7b78a2,
        type: 3}
      propertyPath: m_LocalPosition.x
      value: 0
      objectReference: {fileID: 0}
    - target: {fileID: 4289131053026027863, guid: f8ff17094e67ae343ad3e1747a7b78a2,
        type: 3}
      propertyPath: m_LocalPosition.y
      value: 0.5
      objectReference: {fileID: 0}
    - target: {fileID: 4289131053026027863, guid: f8ff17094e67ae343ad3e1747a7b78a2,
        type: 3}
      propertyPath: m_LocalPosition.z
      value: 0
      objectReference: {fileID: 0}
    - target: {fileID: 4289131053026027863, guid: f8ff17094e67ae343ad3e1747a7b78a2,
        type: 3}
      propertyPath: m_LocalRotation.w
      value: 1
      objectReference: {fileID: 0}
    - target: {fileID: 4289131053026027863, guid: f8ff17094e67ae343ad3e1747a7b78a2,
        type: 3}
      propertyPath: m_LocalRotation.x
      value: 0
      objectReference: {fileID: 0}
    - target: {fileID: 4289131053026027863, guid: f8ff17094e67ae343ad3e1747a7b78a2,
        type: 3}
      propertyPath: m_LocalRotation.y
      value: 0
      objectReference: {fileID: 0}
    - target: {fileID: 4289131053026027863, guid: f8ff17094e67ae343ad3e1747a7b78a2,
        type: 3}
      propertyPath: m_LocalRotation.z
      value: 0
      objectReference: {fileID: 0}
    - target: {fileID: 4289131053026027863, guid: f8ff17094e67ae343ad3e1747a7b78a2,
        type: 3}
      propertyPath: m_LocalEulerAnglesHint.x
      value: 0
      objectReference: {fileID: 0}
    - target: {fileID: 4289131053026027863, guid: f8ff17094e67ae343ad3e1747a7b78a2,
        type: 3}
      propertyPath: m_LocalEulerAnglesHint.y
      value: 0
      objectReference: {fileID: 0}
    - target: {fileID: 4289131053026027863, guid: f8ff17094e67ae343ad3e1747a7b78a2,
        type: 3}
      propertyPath: m_LocalEulerAnglesHint.z
      value: 0
      objectReference: {fileID: 0}
    m_RemovedComponents: []
    m_RemovedGameObjects: []
    m_AddedGameObjects: []
    m_AddedComponents: []
  m_SourcePrefab: {fileID: 100100000, guid: f8ff17094e67ae343ad3e1747a7b78a2, type: 3}
--- !u!4 &5178052650083227069 stripped
Transform:
  m_CorrespondingSourceObject: {fileID: 4289131053026027863, guid: f8ff17094e67ae343ad3e1747a7b78a2,
    type: 3}
  m_PrefabInstance: {fileID: 8960525556010302698}
  m_PrefabAsset: {fileID: 0}
