%YAML 1.1
%TAG !u! tag:unity3d.com,2011:
--- !u!1001 &7618842876260238436
PrefabInstance:
  m_ObjectHideFlags: 0
  serializedVersion: 2
  m_Modification:
    serializedVersion: 3
    m_TransformParent: {fileID: 0}
    m_Modifications:
    - target: {fileID: 5721723476799238222, guid: 4adae8232505e0e45b64cc3b61e9d9e1,
        type: 3}
      propertyPath: m_Name
      value: Door_Middle (2) Variant
      objectReference: {fileID: 0}
    - target: {fileID: 5915041321441941656, guid: 4adae8232505e0e45b64cc3b61e9d9e1,
        type: 3}
      propertyPath: m_Convex
      value: 1
      objectReference: {fileID: 0}
    - target: {fileID: 5915041321441941656, guid: 4adae8232505e0e45b64cc3b61e9d9e1,
        type: 3}
      propertyPath: m_IsTrigger
      value: 0
      objectReference: {fileID: 0}
    - target: {fileID: 7936834669806457470, guid: 4adae8232505e0e45b64cc3b61e9d9e1,
        type: 3}
      propertyPath: m_LocalPosition.x
      value: -1.506
      objectReference: {fileID: 0}
    - target: {fileID: 7936834669806457470, guid: 4adae8232505e0e45b64cc3b61e9d9e1,
        type: 3}
      propertyPath: m_LocalPosition.y
      value: -0.039
      objectReference: {fileID: 0}
    - target: {fileID: 7936834669806457470, guid: 4adae8232505e0e45b64cc3b61e9d9e1,
        type: 3}
      propertyPath: m_LocalPosition.z
      value: 0.63
      objectReference: {fileID: 0}
    - target: {fileID: 7936834669806457470, guid: 4adae8232505e0e45b64cc3b61e9d9e1,
        type: 3}
      propertyPath: m_LocalRotation.w
      value: 1
      objectReference: {fileID: 0}
    - target: {fileID: 7936834669806457470, guid: 4adae8232505e0e45b64cc3b61e9d9e1,
        type: 3}
      propertyPath: m_LocalRotation.x
      value: -0
      objectReference: {fileID: 0}
    - target: {fileID: 7936834669806457470, guid: 4adae8232505e0e45b64cc3b61e9d9e1,
        type: 3}
      propertyPath: m_LocalRotation.y
      value: -0
      objectReference: {fileID: 0}
    - target: {fileID: 7936834669806457470, guid: 4adae8232505e0e45b64cc3b61e9d9e1,
        type: 3}
      propertyPath: m_LocalRotation.z
      value: -0
      objectReference: {fileID: 0}
    - target: {fileID: 7936834669806457470, guid: 4adae8232505e0e45b64cc3b61e9d9e1,
        type: 3}
      propertyPath: m_LocalEulerAnglesHint.x
      value: 0
      objectReference: {fileID: 0}
    - target: {fileID: 7936834669806457470, guid: 4adae8232505e0e45b64cc3b61e9d9e1,
        type: 3}
      propertyPath: m_LocalEulerAnglesHint.y
      value: 0
      objectReference: {fileID: 0}
    - target: {fileID: 7936834669806457470, guid: 4adae8232505e0e45b64cc3b61e9d9e1,
        type: 3}
      propertyPath: m_LocalEulerAnglesHint.z
      value: 0
      objectReference: {fileID: 0}
    m_RemovedComponents: []
    m_RemovedGameObjects: []
    m_AddedGameObjects: []
    m_AddedComponents:
    - targetCorrespondingSourceObject: {fileID: 5721723476799238222, guid: 4adae8232505e0e45b64cc3b61e9d9e1,
        type: 3}
      insertIndex: -1
      addedObject: {fileID: 10408560308798091}
    - targetCorrespondingSourceObject: {fileID: 5721723476799238222, guid: 4adae8232505e0e45b64cc3b61e9d9e1,
        type: 3}
      insertIndex: -1
      addedObject: {fileID: 6236176969539170340}
  m_SourcePrefab: {fileID: 100100000, guid: 4adae8232505e0e45b64cc3b61e9d9e1, type: 3}
--- !u!1 &2800170333898830890 stripped
GameObject:
  m_CorrespondingSourceObject: {fileID: 5721723476799238222, guid: 4adae8232505e0e45b64cc3b61e9d9e1,
    type: 3}
  m_PrefabInstance: {fileID: 7618842876260238436}
  m_PrefabAsset: {fileID: 0}
--- !u!65 &10408560308798091
BoxCollider:
  m_ObjectHideFlags: 0
  m_CorrespondingSourceObject: {fileID: 0}
  m_PrefabInstance: {fileID: 0}
  m_PrefabAsset: {fileID: 0}
  m_GameObject: {fileID: 2800170333898830890}
  m_Material: {fileID: 0}
  m_IncludeLayers:
    serializedVersion: 2
    m_Bits: 0
  m_ExcludeLayers:
    serializedVersion: 2
    m_Bits: 0
  m_LayerOverridePriority: 0
  m_IsTrigger: 1
  m_ProvidesContacts: 0
  m_Enabled: 1
  serializedVersion: 3
  m_Size: {x: 0.6134987, y: 0.7569902, z: 0.73640156}
  m_Center: {x: -1.0925636, y: 1.2447056, z: -0.038348675}
--- !u!114 &6236176969539170340
MonoBehaviour:
  m_ObjectHideFlags: 0
  m_CorrespondingSourceObject: {fileID: 0}
  m_PrefabInstance: {fileID: 0}
  m_PrefabAsset: {fileID: 0}
  m_GameObject: {fileID: 2800170333898830890}
  m_Enabled: 1
  m_EditorHideFlags: 0
  m_Script: {fileID: 11500000, guid: 7de63ddf8eb85bc48a0e32509d6515e7, type: 3}
  m_Name: 
  m_EditorClassIdentifier: 
  openAngle: -90
  closeAngle: 0
  speed: 2
  key: {fileID: 0}
