%YAML 1.1
%TAG !u! tag:unity3d.com,2011:
--- !u!1001 &270937586208553977
PrefabInstance:
  m_ObjectHideFlags: 0
  serializedVersion: 2
  m_Modification:
    serializedVersion: 3
    m_TransformParent: {fileID: 3696657838132285986}
    m_Modifications:
    - target: {fileID: 4015368012886610000, guid: 1e7f6f4d6ef92d046af0f22e008cfc25,
        type: 3}
      propertyPath: m_Name
      value: Key_Golden Variant
      objectReference: {fileID: 0}
    - target: {fileID: 4015368012886772848, guid: 1e7f6f4d6ef92d046af0f22e008cfc25,
        type: 3}
      propertyPath: m_LocalPosition.x
      value: 0
      objectReference: {fileID: 0}
    - target: {fileID: 4015368012886772848, guid: 1e7f6f4d6ef92d046af0f22e008cfc25,
        type: 3}
      propertyPath: m_LocalPosition.y
      value: 0
      objectReference: {fileID: 0}
    - target: {fileID: 4015368012886772848, guid: 1e7f6f4d6ef92d046af0f22e008cfc25,
        type: 3}
      propertyPath: m_LocalPosition.z
      value: 0
      objectReference: {fileID: 0}
    - target: {fileID: 4015368012886772848, guid: 1e7f6f4d6ef92d046af0f22e008cfc25,
        type: 3}
      propertyPath: m_LocalRotation.w
      value: 0.70710677
      objectReference: {fileID: 0}
    - target: {fileID: 4015368012886772848, guid: 1e7f6f4d6ef92d046af0f22e008cfc25,
        type: 3}
      propertyPath: m_LocalRotation.x
      value: -0.70710677
      objectReference: {fileID: 0}
    - target: {fileID: 4015368012886772848, guid: 1e7f6f4d6ef92d046af0f22e008cfc25,
        type: 3}
      propertyPath: m_LocalRotation.y
      value: 0
      objectReference: {fileID: 0}
    - target: {fileID: 4015368012886772848, guid: 1e7f6f4d6ef92d046af0f22e008cfc25,
        type: 3}
      propertyPath: m_LocalRotation.z
      value: 0
      objectReference: {fileID: 0}
    - target: {fileID: 4015368012886772848, guid: 1e7f6f4d6ef92d046af0f22e008cfc25,
        type: 3}
      propertyPath: m_LocalEulerAnglesHint.x
      value: -90
      objectReference: {fileID: 0}
    - target: {fileID: 4015368012886772848, guid: 1e7f6f4d6ef92d046af0f22e008cfc25,
        type: 3}
      propertyPath: m_LocalEulerAnglesHint.y
      value: -90
      objectReference: {fileID: 0}
    - target: {fileID: 4015368012886772848, guid: 1e7f6f4d6ef92d046af0f22e008cfc25,
        type: 3}
      propertyPath: m_LocalEulerAnglesHint.z
      value: 90
      objectReference: {fileID: 0}
    m_RemovedComponents: []
    m_RemovedGameObjects: []
    m_AddedGameObjects: []
    m_AddedComponents: []
  m_SourcePrefab: {fileID: 100100000, guid: 1e7f6f4d6ef92d046af0f22e008cfc25, type: 3}
--- !u!4 &3781866598723630985 stripped
Transform:
  m_CorrespondingSourceObject: {fileID: 4015368012886772848, guid: 1e7f6f4d6ef92d046af0f22e008cfc25,
    type: 3}
  m_PrefabInstance: {fileID: 270937586208553977}
  m_PrefabAsset: {fileID: 0}
--- !u!1001 &7959545688858354892
PrefabInstance:
  m_ObjectHideFlags: 0
  serializedVersion: 2
  m_Modification:
    serializedVersion: 3
    m_TransformParent: {fileID: 0}
    m_Modifications:
    - target: {fileID: 6717354235273230061, guid: d4af6d98a242c854cb4d5ce3d77e46b5,
        type: 3}
      propertyPath: m_Name
      value: Interactable Kinematic key Variant
      objectReference: {fileID: 0}
    - target: {fileID: 6717354235273230062, guid: d4af6d98a242c854cb4d5ce3d77e46b5,
        type: 3}
      propertyPath: m_LocalPosition.x
      value: 0.749
      objectReference: {fileID: 0}
    - target: {fileID: 6717354235273230062, guid: d4af6d98a242c854cb4d5ce3d77e46b5,
        type: 3}
      propertyPath: m_LocalPosition.y
      value: 1.04
      objectReference: {fileID: 0}
    - target: {fileID: 6717354235273230062, guid: d4af6d98a242c854cb4d5ce3d77e46b5,
        type: 3}
      propertyPath: m_LocalPosition.z
      value: 14.312
      objectReference: {fileID: 0}
    - target: {fileID: 6717354235273230062, guid: d4af6d98a242c854cb4d5ce3d77e46b5,
        type: 3}
      propertyPath: m_LocalRotation.w
      value: 0.6857866
      objectReference: {fileID: 0}
    - target: {fileID: 6717354235273230062, guid: d4af6d98a242c854cb4d5ce3d77e46b5,
        type: 3}
      propertyPath: m_LocalRotation.x
      value: 0.6857866
      objectReference: {fileID: 0}
    - target: {fileID: 6717354235273230062, guid: d4af6d98a242c854cb4d5ce3d77e46b5,
        type: 3}
      propertyPath: m_LocalRotation.y
      value: -0.17232747
      objectReference: {fileID: 0}
    - target: {fileID: 6717354235273230062, guid: d4af6d98a242c854cb4d5ce3d77e46b5,
        type: 3}
      propertyPath: m_LocalRotation.z
      value: 0.17232747
      objectReference: {fileID: 0}
    - target: {fileID: 6717354235273230062, guid: d4af6d98a242c854cb4d5ce3d77e46b5,
        type: 3}
      propertyPath: m_LocalEulerAnglesHint.x
      value: 90
      objectReference: {fileID: 0}
    - target: {fileID: 6717354235273230062, guid: d4af6d98a242c854cb4d5ce3d77e46b5,
        type: 3}
      propertyPath: m_LocalEulerAnglesHint.y
      value: 0
      objectReference: {fileID: 0}
    - target: {fileID: 6717354235273230062, guid: d4af6d98a242c854cb4d5ce3d77e46b5,
        type: 3}
      propertyPath: m_LocalEulerAnglesHint.z
      value: 28.211
      objectReference: {fileID: 0}
    m_RemovedComponents: []
    m_RemovedGameObjects:
    - {fileID: 7541835143868033332, guid: d4af6d98a242c854cb4d5ce3d77e46b5, type: 3}
    m_AddedGameObjects:
    - targetCorrespondingSourceObject: {fileID: 6717354235273230062, guid: d4af6d98a242c854cb4d5ce3d77e46b5,
        type: 3}
      insertIndex: -1
      addedObject: {fileID: 3781866598723630985}
    m_AddedComponents: []
  m_SourcePrefab: {fileID: 100100000, guid: d4af6d98a242c854cb4d5ce3d77e46b5, type: 3}
--- !u!4 &3696657838132285986 stripped
Transform:
  m_CorrespondingSourceObject: {fileID: 6717354235273230062, guid: d4af6d98a242c854cb4d5ce3d77e46b5,
    type: 3}
  m_PrefabInstance: {fileID: 7959545688858354892}
  m_PrefabAsset: {fileID: 0}
