%YAML 1.1
%TAG !u! tag:unity3d.com,2011:
--- !u!1001 &914497697958359699
PrefabInstance:
  m_ObjectHideFlags: 0
  serializedVersion: 2
  m_Modification:
    serializedVersion: 3
    m_TransformParent: {fileID: 6717354235273230062}
    m_Modifications:
    - target: {fileID: -3185712928625305912, guid: 587911d8e2e27694daaec695bc48f418,
        type: 3}
      propertyPath: m_Convex
      value: 1
      objectReference: {fileID: 0}
    - target: {fileID: 7212807089758395303, guid: 587911d8e2e27694daaec695bc48f418,
        type: 3}
      propertyPath: m_Name
      value: Book_Holy_C
      objectReference: {fileID: 0}
    - target: {fileID: 8408384421787346338, guid: 587911d8e2e27694daaec695bc48f418,
        type: 3}
      propertyPath: m_LocalPosition.x
      value: 0
      objectReference: {fileID: 0}
    - target: {fileID: 8408384421787346338, guid: 587911d8e2e27694daaec695bc48f418,
        type: 3}
      propertyPath: m_LocalPosition.y
      value: 0
      objectReference: {fileID: 0}
    - target: {fileID: 8408384421787346338, guid: 587911d8e2e27694daaec695bc48f418,
        type: 3}
      propertyPath: m_LocalPosition.z
      value: 0
      objectReference: {fileID: 0}
    - target: {fileID: 8408384421787346338, guid: 587911d8e2e27694daaec695bc48f418,
        type: 3}
      propertyPath: m_LocalRotation.w
      value: 0.70710695
      objectReference: {fileID: 0}
    - target: {fileID: 8408384421787346338, guid: 587911d8e2e27694daaec695bc48f418,
        type: 3}
      propertyPath: m_LocalRotation.x
      value: -0.7071067
      objectReference: {fileID: 0}
    - target: {fileID: 8408384421787346338, guid: 587911d8e2e27694daaec695bc48f418,
        type: 3}
      propertyPath: m_LocalRotation.y
      value: -0
      objectReference: {fileID: 0}
    - target: {fileID: 8408384421787346338, guid: 587911d8e2e27694daaec695bc48f418,
        type: 3}
      propertyPath: m_LocalRotation.z
      value: -0
      objectReference: {fileID: 0}
    - target: {fileID: 8408384421787346338, guid: 587911d8e2e27694daaec695bc48f418,
        type: 3}
      propertyPath: m_LocalEulerAnglesHint.x
      value: -90
      objectReference: {fileID: 0}
    - target: {fileID: 8408384421787346338, guid: 587911d8e2e27694daaec695bc48f418,
        type: 3}
      propertyPath: m_LocalEulerAnglesHint.y
      value: 0
      objectReference: {fileID: 0}
    - target: {fileID: 8408384421787346338, guid: 587911d8e2e27694daaec695bc48f418,
        type: 3}
      propertyPath: m_LocalEulerAnglesHint.z
      value: 0
      objectReference: {fileID: 0}
    m_RemovedComponents: []
    m_RemovedGameObjects: []
    m_AddedGameObjects: []
    m_AddedComponents: []
  m_SourcePrefab: {fileID: 100100000, guid: 587911d8e2e27694daaec695bc48f418, type: 3}
--- !u!4 &8647025473255659313 stripped
Transform:
  m_CorrespondingSourceObject: {fileID: 8408384421787346338, guid: 587911d8e2e27694daaec695bc48f418,
    type: 3}
  m_PrefabInstance: {fileID: 914497697958359699}
  m_PrefabAsset: {fileID: 0}
--- !u!1001 &3849281703070779595
PrefabInstance:
  m_ObjectHideFlags: 0
  serializedVersion: 2
  m_Modification:
    serializedVersion: 3
    m_TransformParent: {fileID: 0}
    m_Modifications:
    - target: {fileID: 6354640239425093910, guid: 521327bdbcb341f782d36f02cab76cb0,
        type: 3}
      propertyPath: m_IsActive
      value: 0
      objectReference: {fileID: 0}
    - target: {fileID: 7517549319329480229, guid: 521327bdbcb341f782d36f02cab76cb0,
        type: 3}
      propertyPath: m_RootOrder
      value: 0
      objectReference: {fileID: 0}
    - target: {fileID: 7517549319329480229, guid: 521327bdbcb341f782d36f02cab76cb0,
        type: 3}
      propertyPath: m_LocalPosition.x
      value: 0.5
      objectReference: {fileID: 0}
    - target: {fileID: 7517549319329480229, guid: 521327bdbcb341f782d36f02cab76cb0,
        type: 3}
      propertyPath: m_LocalPosition.y
      value: 0.5
      objectReference: {fileID: 0}
    - target: {fileID: 7517549319329480229, guid: 521327bdbcb341f782d36f02cab76cb0,
        type: 3}
      propertyPath: m_LocalPosition.z
      value: 0
      objectReference: {fileID: 0}
    - target: {fileID: 7517549319329480229, guid: 521327bdbcb341f782d36f02cab76cb0,
        type: 3}
      propertyPath: m_LocalRotation.w
      value: 0.7071068
      objectReference: {fileID: 0}
    - target: {fileID: 7517549319329480229, guid: 521327bdbcb341f782d36f02cab76cb0,
        type: 3}
      propertyPath: m_LocalRotation.x
      value: 0.7071068
      objectReference: {fileID: 0}
    - target: {fileID: 7517549319329480229, guid: 521327bdbcb341f782d36f02cab76cb0,
        type: 3}
      propertyPath: m_LocalRotation.y
      value: 0
      objectReference: {fileID: 0}
    - target: {fileID: 7517549319329480229, guid: 521327bdbcb341f782d36f02cab76cb0,
        type: 3}
      propertyPath: m_LocalRotation.z
      value: 0
      objectReference: {fileID: 0}
    - target: {fileID: 7517549319329480229, guid: 521327bdbcb341f782d36f02cab76cb0,
        type: 3}
      propertyPath: m_LocalEulerAnglesHint.x
      value: 90
      objectReference: {fileID: 0}
    - target: {fileID: 7517549319329480229, guid: 521327bdbcb341f782d36f02cab76cb0,
        type: 3}
      propertyPath: m_LocalEulerAnglesHint.y
      value: 0
      objectReference: {fileID: 0}
    - target: {fileID: 7517549319329480229, guid: 521327bdbcb341f782d36f02cab76cb0,
        type: 3}
      propertyPath: m_LocalEulerAnglesHint.z
      value: 0
      objectReference: {fileID: 0}
    - target: {fileID: 7517549319329480230, guid: 521327bdbcb341f782d36f02cab76cb0,
        type: 3}
      propertyPath: m_Name
      value: Interactable Kinematic book
      objectReference: {fileID: 0}
    m_RemovedComponents: []
    m_RemovedGameObjects: []
    m_AddedGameObjects:
    - targetCorrespondingSourceObject: {fileID: 7517549319329480229, guid: 521327bdbcb341f782d36f02cab76cb0,
        type: 3}
      insertIndex: -1
      addedObject: {fileID: 8647025473255659313}
    m_AddedComponents: []
  m_SourcePrefab: {fileID: 100100000, guid: 521327bdbcb341f782d36f02cab76cb0, type: 3}
--- !u!4 &6717354235273230062 stripped
Transform:
  m_CorrespondingSourceObject: {fileID: 7517549319329480229, guid: 521327bdbcb341f782d36f02cab76cb0,
    type: 3}
  m_PrefabInstance: {fileID: 3849281703070779595}
  m_PrefabAsset: {fileID: 0}
