%YAML 1.1
%TAG !u! tag:unity3d.com,2011:
--- !u!1001 &5009204965361264597
PrefabInstance:
  m_ObjectHideFlags: 0
  serializedVersion: 2
  m_Modification:
    serializedVersion: 3
    m_TransformParent: {fileID: 2784829289343955347}
    m_Modifications:
    - target: {fileID: 3918751411058313036, guid: bf7a7fc00791eb945a5412768a68fffc,
        type: 3}
      propertyPath: m_LocalPosition.x
      value: 0.073560275
      objectReference: {fileID: 0}
    - target: {fileID: 3918751411058313036, guid: bf7a7fc00791eb945a5412768a68fffc,
        type: 3}
      propertyPath: m_LocalPosition.y
      value: 0.34124058
      objectReference: {fileID: 0}
    - target: {fileID: 3918751411058313036, guid: bf7a7fc00791eb945a5412768a68fffc,
        type: 3}
      propertyPath: m_LocalPosition.z
      value: 0.26785958
      objectReference: {fileID: 0}
    - target: {fileID: 3918751411058313036, guid: bf7a7fc00791eb945a5412768a68fffc,
        type: 3}
      propertyPath: m_LocalRotation.w
      value: 0.7071068
      objectReference: {fileID: 0}
    - target: {fileID: 3918751411058313036, guid: bf7a7fc00791eb945a5412768a68fffc,
        type: 3}
      propertyPath: m_LocalRotation.x
      value: -0.7071068
      objectReference: {fileID: 0}
    - target: {fileID: 3918751411058313036, guid: bf7a7fc00791eb945a5412768a68fffc,
        type: 3}
      propertyPath: m_LocalRotation.y
      value: 0
      objectReference: {fileID: 0}
    - target: {fileID: 3918751411058313036, guid: bf7a7fc00791eb945a5412768a68fffc,
        type: 3}
      propertyPath: m_LocalRotation.z
      value: 0
      objectReference: {fileID: 0}
    - target: {fileID: 3918751411058313036, guid: bf7a7fc00791eb945a5412768a68fffc,
        type: 3}
      propertyPath: m_LocalEulerAnglesHint.x
      value: -90
      objectReference: {fileID: 0}
    - target: {fileID: 3918751411058313036, guid: bf7a7fc00791eb945a5412768a68fffc,
        type: 3}
      propertyPath: m_LocalEulerAnglesHint.y
      value: 0
      objectReference: {fileID: 0}
    - target: {fileID: 3918751411058313036, guid: bf7a7fc00791eb945a5412768a68fffc,
        type: 3}
      propertyPath: m_LocalEulerAnglesHint.z
      value: 0
      objectReference: {fileID: 0}
    - target: {fileID: 3918751411058678635, guid: bf7a7fc00791eb945a5412768a68fffc,
        type: 3}
      propertyPath: m_Convex
      value: 1
      objectReference: {fileID: 0}
    - target: {fileID: 3918751411058678636, guid: bf7a7fc00791eb945a5412768a68fffc,
        type: 3}
      propertyPath: m_Name
      value: Candlestick_Small
      objectReference: {fileID: 0}
    m_RemovedComponents: []
    m_RemovedGameObjects: []
    m_AddedGameObjects: []
    m_AddedComponents: []
  m_SourcePrefab: {fileID: 100100000, guid: bf7a7fc00791eb945a5412768a68fffc, type: 3}
--- !u!4 &8351493147960418457 stripped
Transform:
  m_CorrespondingSourceObject: {fileID: 3918751411058313036, guid: bf7a7fc00791eb945a5412768a68fffc,
    type: 3}
  m_PrefabInstance: {fileID: 5009204965361264597}
  m_PrefabAsset: {fileID: 0}
--- !u!1001 &8907387160468785021
PrefabInstance:
  m_ObjectHideFlags: 0
  serializedVersion: 2
  m_Modification:
    serializedVersion: 3
    m_TransformParent: {fileID: 0}
    m_Modifications:
    - target: {fileID: 6717354235273230061, guid: d4af6d98a242c854cb4d5ce3d77e46b5,
        type: 3}
      propertyPath: m_Name
      value: Lamp
      objectReference: {fileID: 0}
    - target: {fileID: 6717354235273230062, guid: d4af6d98a242c854cb4d5ce3d77e46b5,
        type: 3}
      propertyPath: m_LocalPosition.x
      value: -8.046
      objectReference: {fileID: 0}
    - target: {fileID: 6717354235273230062, guid: d4af6d98a242c854cb4d5ce3d77e46b5,
        type: 3}
      propertyPath: m_LocalPosition.y
      value: 1.0392888
      objectReference: {fileID: 0}
    - target: {fileID: 6717354235273230062, guid: d4af6d98a242c854cb4d5ce3d77e46b5,
        type: 3}
      propertyPath: m_LocalPosition.z
      value: 28.651894
      objectReference: {fileID: 0}
    - target: {fileID: 6717354235273230062, guid: d4af6d98a242c854cb4d5ce3d77e46b5,
        type: 3}
      propertyPath: m_LocalRotation.w
      value: 0.7031261
      objectReference: {fileID: 0}
    - target: {fileID: 6717354235273230062, guid: d4af6d98a242c854cb4d5ce3d77e46b5,
        type: 3}
      propertyPath: m_LocalRotation.x
      value: 0.7031261
      objectReference: {fileID: 0}
    - target: {fileID: 6717354235273230062, guid: d4af6d98a242c854cb4d5ce3d77e46b5,
        type: 3}
      propertyPath: m_LocalRotation.y
      value: -0.074924916
      objectReference: {fileID: 0}
    - target: {fileID: 6717354235273230062, guid: d4af6d98a242c854cb4d5ce3d77e46b5,
        type: 3}
      propertyPath: m_LocalRotation.z
      value: 0.074924916
      objectReference: {fileID: 0}
    - target: {fileID: 6717354235273230062, guid: d4af6d98a242c854cb4d5ce3d77e46b5,
        type: 3}
      propertyPath: m_LocalEulerAnglesHint.x
      value: 90
      objectReference: {fileID: 0}
    - target: {fileID: 6717354235273230062, guid: d4af6d98a242c854cb4d5ce3d77e46b5,
        type: 3}
      propertyPath: m_LocalEulerAnglesHint.y
      value: 0
      objectReference: {fileID: 0}
    - target: {fileID: 6717354235273230062, guid: d4af6d98a242c854cb4d5ce3d77e46b5,
        type: 3}
      propertyPath: m_LocalEulerAnglesHint.z
      value: 12.165
      objectReference: {fileID: 0}
    m_RemovedComponents: []
    m_RemovedGameObjects:
    - {fileID: 7541835143868033332, guid: d4af6d98a242c854cb4d5ce3d77e46b5, type: 3}
    m_AddedGameObjects:
    - targetCorrespondingSourceObject: {fileID: 6717354235273230062, guid: d4af6d98a242c854cb4d5ce3d77e46b5,
        type: 3}
      insertIndex: -1
      addedObject: {fileID: 8351493147960418457}
    m_AddedComponents: []
  m_SourcePrefab: {fileID: 100100000, guid: d4af6d98a242c854cb4d5ce3d77e46b5, type: 3}
--- !u!4 &2784829289343955347 stripped
Transform:
  m_CorrespondingSourceObject: {fileID: 6717354235273230062, guid: d4af6d98a242c854cb4d5ce3d77e46b5,
    type: 3}
  m_PrefabInstance: {fileID: 8907387160468785021}
  m_PrefabAsset: {fileID: 0}
