%YAML 1.1
%TAG !u! tag:unity3d.com,2011:
--- !u!1001 &6331379767556756531
PrefabInstance:
  m_ObjectHideFlags: 0
  serializedVersion: 2
  m_Modification:
    serializedVersion: 3
    m_TransformParent: {fileID: 4289131053026027863}
    m_Modifications:
    - target: {fileID: 100000, guid: 934778927de152a45a53d7f36b9849b0, type: 3}
      propertyPath: m_Name
      value: Beaker_Full_Var1
      objectReference: {fileID: 0}
    - target: {fileID: 400000, guid: 934778927de152a45a53d7f36b9849b0, type: 3}
      propertyPath: m_LocalPosition.x
      value: -4.7434306
      objectReference: {fileID: 0}
    - target: {fileID: 400000, guid: 934778927de152a45a53d7f36b9849b0, type: 3}
      propertyPath: m_LocalPosition.y
      value: -4.7547665
      objectReference: {fileID: 0}
    - target: {fileID: 400000, guid: 934778927de152a45a53d7f36b9849b0, type: 3}
      propertyPath: m_LocalPosition.z
      value: -4.1326942
      objectReference: {fileID: 0}
    - target: {fileID: 400000, guid: 934778927de152a45a53d7f36b9849b0, type: 3}
      propertyPath: m_LocalRotation.w
      value: 1
      objectReference: {fileID: 0}
    - target: {fileID: 400000, guid: 934778927de152a45a53d7f36b9849b0, type: 3}
      propertyPath: m_LocalRotation.x
      value: 0.000000021855694
      objectReference: {fileID: 0}
    - target: {fileID: 400000, guid: 934778927de152a45a53d7f36b9849b0, type: 3}
      propertyPath: m_LocalRotation.y
      value: -0
      objectReference: {fileID: 0}
    - target: {fileID: 400000, guid: 934778927de152a45a53d7f36b9849b0, type: 3}
      propertyPath: m_LocalRotation.z
      value: -0
      objectReference: {fileID: 0}
    - target: {fileID: 400000, guid: 934778927de152a45a53d7f36b9849b0, type: 3}
      propertyPath: m_LocalEulerAnglesHint.x
      value: 0
      objectReference: {fileID: 0}
    - target: {fileID: 400000, guid: 934778927de152a45a53d7f36b9849b0, type: 3}
      propertyPath: m_LocalEulerAnglesHint.y
      value: 0
      objectReference: {fileID: 0}
    - target: {fileID: 400000, guid: 934778927de152a45a53d7f36b9849b0, type: 3}
      propertyPath: m_LocalEulerAnglesHint.z
      value: 0
      objectReference: {fileID: 0}
    - target: {fileID: 2300000, guid: 934778927de152a45a53d7f36b9849b0, type: 3}
      propertyPath: m_Materials.Array.data[1]
      value: 
      objectReference: {fileID: 2100000, guid: d7afee8ecf148b041b622449663d7ef9, type: 2}
    m_RemovedComponents: []
    m_RemovedGameObjects: []
    m_AddedGameObjects: []
    m_AddedComponents: []
  m_SourcePrefab: {fileID: 100100000, guid: 934778927de152a45a53d7f36b9849b0, type: 3}
--- !u!4 &6331379767557148339 stripped
Transform:
  m_CorrespondingSourceObject: {fileID: 400000, guid: 934778927de152a45a53d7f36b9849b0,
    type: 3}
  m_PrefabInstance: {fileID: 6331379767556756531}
  m_PrefabAsset: {fileID: 0}
--- !u!1001 &7327504479009017750
PrefabInstance:
  m_ObjectHideFlags: 0
  serializedVersion: 2
  m_Modification:
    serializedVersion: 3
    m_TransformParent: {fileID: 4289131053026027863}
    m_Modifications:
    - target: {fileID: 4453110336206570162, guid: ee13540b11108664bb2cd5974d81a24d,
        type: 3}
      propertyPath: m_Name
      value: Potion_Blue
      objectReference: {fileID: 0}
    - target: {fileID: 4453110336206570162, guid: ee13540b11108664bb2cd5974d81a24d,
        type: 3}
      propertyPath: m_IsActive
      value: 0
      objectReference: {fileID: 0}
    - target: {fileID: 5701486891652077847, guid: ee13540b11108664bb2cd5974d81a24d,
        type: 3}
      propertyPath: m_LocalPosition.x
      value: 0
      objectReference: {fileID: 0}
    - target: {fileID: 5701486891652077847, guid: ee13540b11108664bb2cd5974d81a24d,
        type: 3}
      propertyPath: m_LocalPosition.y
      value: 0
      objectReference: {fileID: 0}
    - target: {fileID: 5701486891652077847, guid: ee13540b11108664bb2cd5974d81a24d,
        type: 3}
      propertyPath: m_LocalPosition.z
      value: 0
      objectReference: {fileID: 0}
    - target: {fileID: 5701486891652077847, guid: ee13540b11108664bb2cd5974d81a24d,
        type: 3}
      propertyPath: m_LocalRotation.w
      value: 1
      objectReference: {fileID: 0}
    - target: {fileID: 5701486891652077847, guid: ee13540b11108664bb2cd5974d81a24d,
        type: 3}
      propertyPath: m_LocalRotation.x
      value: 0
      objectReference: {fileID: 0}
    - target: {fileID: 5701486891652077847, guid: ee13540b11108664bb2cd5974d81a24d,
        type: 3}
      propertyPath: m_LocalRotation.y
      value: 0
      objectReference: {fileID: 0}
    - target: {fileID: 5701486891652077847, guid: ee13540b11108664bb2cd5974d81a24d,
        type: 3}
      propertyPath: m_LocalRotation.z
      value: 0
      objectReference: {fileID: 0}
    - target: {fileID: 5701486891652077847, guid: ee13540b11108664bb2cd5974d81a24d,
        type: 3}
      propertyPath: m_LocalEulerAnglesHint.x
      value: 0
      objectReference: {fileID: 0}
    - target: {fileID: 5701486891652077847, guid: ee13540b11108664bb2cd5974d81a24d,
        type: 3}
      propertyPath: m_LocalEulerAnglesHint.y
      value: 0
      objectReference: {fileID: 0}
    - target: {fileID: 5701486891652077847, guid: ee13540b11108664bb2cd5974d81a24d,
        type: 3}
      propertyPath: m_LocalEulerAnglesHint.z
      value: 0
      objectReference: {fileID: 0}
    - target: {fileID: 6906461311312377501, guid: ee13540b11108664bb2cd5974d81a24d,
        type: 3}
      propertyPath: m_Materials.Array.data[0]
      value: 
      objectReference: {fileID: 2100000, guid: d7afee8ecf148b041b622449663d7ef9, type: 2}
    m_RemovedComponents: []
    m_RemovedGameObjects: []
    m_AddedGameObjects: []
    m_AddedComponents: []
  m_SourcePrefab: {fileID: 100100000, guid: ee13540b11108664bb2cd5974d81a24d, type: 3}
--- !u!4 &3075754719182673537 stripped
Transform:
  m_CorrespondingSourceObject: {fileID: 5701486891652077847, guid: ee13540b11108664bb2cd5974d81a24d,
    type: 3}
  m_PrefabInstance: {fileID: 7327504479009017750}
  m_PrefabAsset: {fileID: 0}
--- !u!1001 &8766591488913328615
PrefabInstance:
  m_ObjectHideFlags: 0
  serializedVersion: 2
  m_Modification:
    serializedVersion: 3
    m_TransformParent: {fileID: 0}
    m_Modifications:
    - target: {fileID: 3555266395154559664, guid: 2ed984a58a974166bf92c82a74380454,
        type: 3}
      propertyPath: m_IsActive
      value: 0
      objectReference: {fileID: 0}
    - target: {fileID: 4769098102207602864, guid: 2ed984a58a974166bf92c82a74380454,
        type: 3}
      propertyPath: m_RootOrder
      value: 1
      objectReference: {fileID: 0}
    - target: {fileID: 4769098102207602864, guid: 2ed984a58a974166bf92c82a74380454,
        type: 3}
      propertyPath: m_LocalPosition.x
      value: -4.2049556
      objectReference: {fileID: 0}
    - target: {fileID: 4769098102207602864, guid: 2ed984a58a974166bf92c82a74380454,
        type: 3}
      propertyPath: m_LocalPosition.y
      value: 5.777228
      objectReference: {fileID: 0}
    - target: {fileID: 4769098102207602864, guid: 2ed984a58a974166bf92c82a74380454,
        type: 3}
      propertyPath: m_LocalPosition.z
      value: 32.8198
      objectReference: {fileID: 0}
    - target: {fileID: 4769098102207602864, guid: 2ed984a58a974166bf92c82a74380454,
        type: 3}
      propertyPath: m_LocalRotation.w
      value: 1
      objectReference: {fileID: 0}
    - target: {fileID: 4769098102207602864, guid: 2ed984a58a974166bf92c82a74380454,
        type: 3}
      propertyPath: m_LocalRotation.x
      value: 0
      objectReference: {fileID: 0}
    - target: {fileID: 4769098102207602864, guid: 2ed984a58a974166bf92c82a74380454,
        type: 3}
      propertyPath: m_LocalRotation.y
      value: 0
      objectReference: {fileID: 0}
    - target: {fileID: 4769098102207602864, guid: 2ed984a58a974166bf92c82a74380454,
        type: 3}
      propertyPath: m_LocalRotation.z
      value: 0
      objectReference: {fileID: 0}
    - target: {fileID: 4769098102207602864, guid: 2ed984a58a974166bf92c82a74380454,
        type: 3}
      propertyPath: m_LocalEulerAnglesHint.x
      value: 0
      objectReference: {fileID: 0}
    - target: {fileID: 4769098102207602864, guid: 2ed984a58a974166bf92c82a74380454,
        type: 3}
      propertyPath: m_LocalEulerAnglesHint.y
      value: 0
      objectReference: {fileID: 0}
    - target: {fileID: 4769098102207602864, guid: 2ed984a58a974166bf92c82a74380454,
        type: 3}
      propertyPath: m_LocalEulerAnglesHint.z
      value: 0
      objectReference: {fileID: 0}
    - target: {fileID: 4769098102207602867, guid: 2ed984a58a974166bf92c82a74380454,
        type: 3}
      propertyPath: m_Name
      value: potion
      objectReference: {fileID: 0}
    m_RemovedComponents: []
    m_RemovedGameObjects: []
    m_AddedGameObjects:
    - targetCorrespondingSourceObject: {fileID: 4769098102207602864, guid: 2ed984a58a974166bf92c82a74380454,
        type: 3}
      insertIndex: -1
      addedObject: {fileID: 3075754719182673537}
    - targetCorrespondingSourceObject: {fileID: 4769098102207602864, guid: 2ed984a58a974166bf92c82a74380454,
        type: 3}
      insertIndex: -1
      addedObject: {fileID: 6331379767557148339}
    m_AddedComponents: []
  m_SourcePrefab: {fileID: 100100000, guid: 2ed984a58a974166bf92c82a74380454, type: 3}
--- !u!4 &4289131053026027863 stripped
Transform:
  m_CorrespondingSourceObject: {fileID: 4769098102207602864, guid: 2ed984a58a974166bf92c82a74380454,
    type: 3}
  m_PrefabInstance: {fileID: 8766591488913328615}
  m_PrefabAsset: {fileID: 0}
